…
    ## 
    ## -- Column specification --------------------------------------------------------
    ## cols(
    ##   direction = col_character(),
    ##   value = col_double()
    ## )

``` r
input2
```

    ## # A tibble: 1,000 x 2
    ##    direction value
    ##    <chr>     <dbl>
    ##  1 forward       4
    ##  2 down          8
    ##  3 down          3
    ##  4 down          1
    ##  5 forward       8
    ##  6 up            6
    ##  7 down          4
    ##  8 forward       2
    ##  9 down          4
    ## 10 down          6
    ## # ... with 990 more rows
…
