…
``` r
input1 <- read_table(here("Input", "input_01.txt"), col_names = "value")
```

    ## 
    ## -- Column specification --------------------------------------------------------
    ## cols(
    ##   value = col_double()
    ## )

``` r
input1
```

    ## # A tibble: 2,000 x 1
    ##    value
    ##    <dbl>
    ##  1   157
    ##  2   148
    ##  3   149
    ##  4   146
    ##  5   144
    ##  6   145
    ##  7   162
    ##  8   163
    ##  9   164
    ## 10   166
    ## # ... with 1,990 more rows
…
