…
    ## 
    ## -- Column specification --------------------------------------------------------
    ## cols(
    ##   value = col_character()
    ## )

``` r
input
```

    ## # A tibble: 1,000 x 1
    ##    value       
    ##    <chr>       
    ##  1 110001101000
    ##  2 111011011100
    ##  3 100001101100
    ##  4 111011011010
    ##  5 001001101100
    ##  6 100001111100
    ##  7 110110101101
    ##  8 110010110000
    ##  9 111101010011
    ## 10 101101010110
    ## # ... with 990 more rows
…
